{
  "project_info": {
    "project_number": "886856074208",
    "firebase_url": "https://daybymetest.firebaseio.com",
    "project_id": "daybymetest",
    "storage_bucket": "daybymetest.appspot.com"
  },
  "client": [
    {
      "client_info": {
        "mobilesdk_app_id": "1:886856074208:android:8706f9f7ebf83944",
        "android_client_info": {
          "package_name": "com.listtest"
        }
      },
      "oauth_client": [
        {
          "client_id": "886856074208-cqgp84g5uo25cj8v4t1fovti7ch0h5dh.apps.googleusercontent.com",
          "client_type": 3
        }
      ],
      "api_key": [
        {
          "current_key": "AIzaSyBNcuI_0nOpRnx0hqzFlzi9-SRhdG0jomw"
        }
      ],
      "services": {
        "analytics_service": {
          "status": 1
        },
        "appinvite_service": {
          "status": 1,
          "other_platform_oauth_client": []
        },
        "ads_service": {
          "status": 2
        }
      }
    }
  ],
  "configuration_version": "1"
}